Example multiverse implementation: Re-evaluating the efficiency of physical visualizations
…
expand(M) %>%
  mutate( index = seq(1:nrow(.)) ) %>%
  mutate( summary = map(.results, "df") ) %>%
  unnest_wider( c(summary)) %>%
  unnest(cols = c(modality, estimate, conf.low, conf.high)) %>%
  mutate(
    estimate = ifelse(data_transform == "log-transformed", exp(estimate), estimate),
    conf.low = ifelse(data_transform == "log-transformed", exp(conf.low), conf.low),
    conf.high = ifelse(data_transform == "log-transformed", exp(conf.high), conf.high)
  ) %>%
  arrange(conf_level, desc(data_transform), desc(ci_method))

## # A tibble: 64 × 13
##    .universe ci_method data_transform  conf_level .parameter_assig… .code       
##        <int> <chr>     <chr>           <chr>      <list>            <list>      
##  1         5 t based   untransformed   50%        <named list [3]>  <named list>
##  2         5 t based   untransformed   50%        <named list [3]>  <named list>
##  3         5 t based   untransformed   50%        <named list [3]>  <named list>
##  4         5 t based   untransformed   50%        <named list [3]>  <named list>
##  5        13 bootstrap untransformed   50%        <named list [3]>  <named list>
##  6        13 bootstrap untransformed   50%        <named list [3]>  <named list>
##  7        13 bootstrap untransformed   50%        <named list [3]>  <named list>
##  8        13 bootstrap untransformed   50%        <named list [3]>  <named list>
##  9         1 t based   log-transformed 50%        <named list [3]>  <named list>
## 10         1 t based   log-transformed 50%        <named list [3]>  <named list>
## # … with 54 more rows, and 7 more variables: .results <list>, .errors <list>,
## #   index <int>, modality <chr>, estimate <dbl>, conf.low <dbl>,
## #   conf.high <dbl>
…
